…
The [Elexon API](https://www.elexon.co.uk/wp-content/uploads/2016/10/Application-Programming-Interfaces-API-and-Data-Push-user-guide.pdf) (Ghanty 2016) gives access to time windows of data of restricted size. For rolling systems demand, this is of the order of 1 week. Collecting data covering several years would require querying the API in a loop. Since this may not be deemed acceptable by the provider, pooled data is downloaded from the [Grid Watch](http://www.gridwatch.templar.co.uk/download.php) website (Grid Watch 2017). The data is downloaded manually and then read with the following code:

``` r
demand_df <- read_csv('gridwatch.csv', 
    col_types = cols(
        id = col_integer(),
        timestamp = col_datetime(format = ""),
        demand = col_integer()
    )
)

(demand_df <- demand_df %>% 
    select(date_time = timestamp, demand, -id))
#> # A tibble: 602,074 × 2
#>              date_time demand
#>                 <dttm>  <int>
#> 1  2011-05-27 15:50:04  38874
#> 2  2011-05-27 15:55:02  38845
#> 3  2011-05-27 16:00:02  38745
#> 4  2011-05-27 16:05:01  38826
#> 5  2011-05-27 16:10:02  38865
#> 6  2011-05-27 16:15:01  38881
#> 7  2011-05-27 16:20:02  38876
#> 8  2011-05-27 16:25:04  38911
#> 9  2011-05-27 16:30:03  38829
#> 10 2011-05-27 16:35:01  38735
#> # ... with 602,064 more rows
```
…
``` r
demand_xts <- xts(demand_df$demand, demand_df$date_time)
reg_time <- seq(from = ceiling_date(min(demand_df$date_time), "5 mins"), 
                to = max(demand_df$date_time), 
                by = "5 mins")

(demand_df <- demand_xts %>% 
    merge(reg_time, fill = na.locf) %>% 
    merge(reg_time, join = 'inner') %>% 
    broom::tidy() %>% 
    select(date_time = index, demand = value) %>% 
    mutate(date_time = date_time - minutes(5)) %>% 
    as_tibble())
#> # A tibble: 603,926 × 2
#>              date_time demand
#>                 <dttm>  <dbl>
#> 1  2011-05-27 15:50:00  38874
#> 2  2011-05-27 15:55:00  38845
#> 3  2011-05-27 16:00:00  38745
#> 4  2011-05-27 16:05:00  38826
#> 5  2011-05-27 16:10:00  38865
#> 6  2011-05-27 16:15:00  38881
#> 7  2011-05-27 16:20:00  38876
#> 8  2011-05-27 16:25:00  38911
#> 9  2011-05-27 16:30:00  38829
#> 10 2011-05-27 16:35:00  38735
#> # ... with 603,916 more rows
```
…
