…
<img src="rolling-system-demand_files/figure-markdown_github/g_gw_dem_2016-1.png" width="70%" style="display: block; margin: auto;" />

There are some 'spikes' which require some investigation. A starting point could be to directly request the data through the API at these times and compare it to spikes recorded in the grid watch summarised data. First, demand greater than 60GW or less than 5GW, are filtered. By observervation, this filter should caputure the 10 obvious spikes.

``` r
# filter results that have greater than 60000 MW demand ------------------------
spikes <- demand_2016 %>%
    filter(demand > 60000 | demand < 5000) %>%
    mutate(year_day = yday(date_time))
spikes
#> # A tibble: 49 × 3
#>              date_time demand year_day
#>                 <dttm>  <int>    <dbl>
#> 1  2016-01-22 14:25:00  82251       22
#> 2  2016-01-28 22:40:00   3343       28
#> 3  2016-01-28 22:45:00   3368       28
#> 4  2016-01-28 22:50:00   3393       28
#> 5  2016-01-28 22:55:00   3418       28
#> 6  2016-01-28 23:00:00   3443       28
#> 7  2016-01-28 23:05:00   3464       28
#> 8  2016-01-28 23:10:00   3295       28
#> 9  2016-01-28 23:15:00   3091       28
#> 10 2016-01-28 23:20:00   3091       28
#> # ... with 39 more rows
```
…
